Kapitel 5 Bearbejdning - tidyverse dag 1 | Analyse og visualisering af biologiske datasæt – 2025
…
#> # A tibble: 3 × 2
#>       x y    
#>   <dbl> <chr>
#> 1     1 a    
#> 2     2 b    
#> 3     3 c

Man kan omdanne en data.frame til en tibble ved at bruge funktionen as_tibble(), som vist nedenfor:

as_tibble(iris)

#> # A tibble: 150 × 5
#>    Sepal.Length Sepal.Width Petal.Length Petal.Width Species
#>           <dbl>       <dbl>        <dbl>       <dbl> <fct>  
#>  1          5.1         3.5          1.4         0.2 setosa 
#>  2          4.9         3            1.4         0.2 setosa 
#>  3          4.7         3.2          1.3         0.2 setosa 
#>  4          4.6         3.1          1.5         0.2 setosa 
#>  5          5           3.6          1.4         0.2 setosa 
#>  6          5.4         3.9          1.7         0.4 setosa 
#>  7          4.6         3.4          1.4         0.3 setosa 
#>  8          5           3.4          1.5         0.2 setosa 
#>  9          4.4         2.9          1.4         0.2 setosa 
#> 10          4.9         3.1          1.5         0.1 setosa 
#> # ℹ 140 more rows
…
one_of()
variabler i en karaktervektor

everything()
alle variabler

where()
tager en funktion og returnerer alle variabler, hvor funktionen returnerer TRUE

For eksempel:

titanic_clean %>% select(starts_with("P"))

#> # A tibble: 714 × 3
#>    PassengerId Pclass Parch
#>          <int>  <int> <int>
#>  1           1      3     0
#>  2           2      1     0
#>  3           3      3     0
#>  4           4      1     0
#>  5           5      3     0
#>  6           7      1     0
#>  7           8      3     1
#>  8           9      3     2
#>  9          10      2     0
#> 10          11      3     1
#> # ℹ 704 more rows

Specielt brugbar i statistiske metoder, der kræver kun numeriske variabler, er where(), når den kombineres med is.numeric. For eksempel, i følgende kode udvælger man kun numeriske variabler fra datasættet titanic_clean:

titanic_clean %>% select(where(is.numeric))

#> # A tibble: 714 × 7
#>    PassengerId Survived Pclass   Age SibSp Parch  Fare
#>          <int>    <int>  <int> <dbl> <int> <int> <dbl>
#>  1           1        0      3    22     1     0  7.25
#>  2           2        1      1    38     1     0 71.3 
#>  3           3        1      3    26     0     0  7.92
#>  4           4        1      1    35     1     0 53.1 
#>  5           5        0      3    35     0     0  8.05
#>  6           7        0      1    54     0     0 51.9 
#>  7           8        0      3     2     3     1 21.1 
#>  8           9        1      3    27     0     2 11.1 
#>  9          10        1      2    14     1     0 30.1 
#> 10          11        1      3     4     1     1 16.7 
#> # ℹ 704 more rows
…
