Kapitel 6 Bearbejdning - tidyverse dag 2 | Analyse og visualisering af biologiske datasæt – 2025
…
separate()
opdele strenge fra én kolonne til to

unite()
føje strenge sammen fra to til én kolonne

6.3.2 Reshape data fra wide til long med pivot_longer()

Lad os arbejde med datasættet iris. Man får iris i long format med følgende kommando: Her vil man gerne tage alle numeriske kolonner og placere deres værdier i en enkelt kolonne value (med en nøglekolonne name til at adskille mellem de forskellige variabler).

iris %>%
  pivot_longer(cols = where(is.numeric))

#> # A tibble: 600 × 3
#>    Species name         value
#>    <fct>   <chr>        <dbl>
#>  1 setosa  Sepal.Length   5.1
#>  2 setosa  Sepal.Width    3.5
#>  3 setosa  Petal.Length   1.4
#>  4 setosa  Petal.Width    0.2
#>  5 setosa  Sepal.Length   4.9
#>  6 setosa  Sepal.Width    3  
#>  7 setosa  Petal.Length   1.4
#>  8 setosa  Petal.Width    0.2
#>  9 setosa  Sepal.Length   4.7
#> 10 setosa  Sepal.Width    3.2
#> # ℹ 590 more rows

At beholde numeriske kolonner svarer i dette tilfælde til at man ikke vil have variablen Species med i den enkelte kolonne:

iris %>%
  pivot_longer(cols = -Species)

#> # A tibble: 600 × 3
#>    Species name         value
#>    <fct>   <chr>        <dbl>
#>  1 setosa  Sepal.Length   5.1
#>  2 setosa  Sepal.Width    3.5
#>  3 setosa  Petal.Length   1.4
#>  4 setosa  Petal.Width    0.2
#>  5 setosa  Sepal.Length   4.9
#>  6 setosa  Sepal.Width    3  
#>  7 setosa  Petal.Length   1.4
#>  8 setosa  Petal.Width    0.2
#>  9 setosa  Sepal.Length   4.7
#> 10 setosa  Sepal.Width    3.2
#> # ℹ 590 more rows
…
Man kan se, at der er 22 kolonner i datasættet - én der refererer til gener og 21 som indikerer forskellige prøver fra eksperimentet. Men det er ikke klart, hvad den enkelte prøve egentlig er. Lad os derfor kigge på de prøveoplysninger, som kan være nyttige at inddrage i vores analyse/plots for at undersøge eventuelle batcheffekter osv.

coldata

#> # A tibble: 21 × 5
#>    sample    num.tech.reps strain   batch lane.number
#>    <chr>             <int> <chr>    <int>       <int>
#>  1 SRX033480             1 C57BL.6J     6           1
#>  2 SRX033488             1 C57BL.6J     7           1
#>  3 SRX033481             1 C57BL.6J     6           2
#>  4 SRX033489             1 C57BL.6J     7           2
#>  5 SRX033482             1 C57BL.6J     6           3
#>  6 SRX033490             1 C57BL.6J     7           3
#>  7 SRX033483             1 C57BL.6J     6           5
#>  8 SRX033476             1 C57BL.6J     4           6
#>  9 SRX033478             1 C57BL.6J     4           7
#> 10 SRX033479             1 C57BL.6J     4           8
#> # ℹ 11 more rows
…
Det særlige ved left_join i forhold til de andre funktioner er, at left_join bevarer samtlige data i den første dataframe - det vil sige df i ovenstående billede. Det gælder også selvom d ikke matcher med en frugt i dj. I ovenstående genekspressionseksempel betyder det, at man bevarer alle målinger i gene_table, uanset om der er oplysninger om deres pågældende prøver.

6.5.2 Anvend left_join() på vores datasæt.

Ligesom man matcher kolonnen y i df og dj i ovenstående eksempel, skal vi også have en kolonne, vi kan matche. Vi vil gerne bruge kolonnen sample fra sample_info til at sammenligne med de forskellige prøvenavne i gene_table. Men først er vi nødt til at lave gene_table om til long-formatet, således at prøvenavne fremgår i en enkelt kolonne, sample (der kan bruges i left_join).

gene_table_long <- gene_table %>% 
  pivot_longer(cols = -gene,
               names_to = "sample",
               values_to = "expression") 
gene_table_long

#> # A tibble: 63 × 3
#>    gene               sample    expression
#>    <chr>              <chr>          <dbl>
#>  1 ENSMUSG00000006517 SRX033480       158.
#>  2 ENSMUSG00000006517 SRX033488       182.
#>  3 ENSMUSG00000006517 SRX033481       119.
#>  4 ENSMUSG00000006517 SRX033489       155.
#>  5 ENSMUSG00000006517 SRX033482       167.
#>  6 ENSMUSG00000006517 SRX033490       164.
#>  7 ENSMUSG00000006517 SRX033483       180.
#>  8 ENSMUSG00000006517 SRX033476       263.
#>  9 ENSMUSG00000006517 SRX033478       276.
#> 10 ENSMUSG00000006517 SRX033479       328.
#> # ℹ 53 more rows
…
